[
  {
    "locationName": "Rumah",
    "name": "Bang Jago",
    "phone": "6211111111111",
    "address": "Jl. Patriot Jakasampurna, Kec. Bekasi Barat, Kota Bekasi, Jawa Barat, 17145",
    "isPrimary": "true"
  },
  {
    "locationName": "Kantor",
    "name": "Mohammad Reksa",
    "phone": "6211111111111",
    "address": "Komplek Perumahan Satu",
    "isPrimary": "false"
  },
  {
    "locationName": "Rumah",
    "name": "Bang Jago",
    "phone": "6211111111111",
    "address": "Jl. Prof. Sudarto",
    "isPrimary": "false"
  },
  {
    "locationName": "Kantor",
    "name": "Mohammad Reksa",
    "phone": "6211111111111",
    "address": "Jl. Perintis Kemerdekaan",
    "isPrimary": "false"
  },
  {
    "locationName": "Rumah",
    "name": "Bang Jago",
    "phone": "6211111111111",
    "address": "Jl. Patriot Jakasampurna, Kec. Bekasi Barat, Kota Bekasi, Jawa Barat, 17145",
    "isPrimary": "false"
  },
  {
    "locationName": "Kantor",
    "name": "Mohammad Reksa",
    "phone": "6211111111111",
    "address": "Jl. Patriot Jakasampurna, Kec. Bekasi Barat, Kota Bekasi, Jawa Barat, 17145",
    "isPrimary": "false"
  }
]
