<svg width="88" height="63" viewBox="0 0 88 63" fill="none" xmlns="http://www.w3.org/2000/svg">
<path d="M25.3479 8.59277H53.7031C59.3977 8.59277 64.0141 13.2092 64.0141 18.9038V33.511C64.0141 33.9855 63.6294 34.3702 63.1548 34.3702H35.6589C29.9643 34.3702 25.3479 29.7538 25.3479 24.0592V8.59277Z" fill="#FF7E40"/>
<path d="M46.2802 38.1142H47.1461L46.6223 37.4247C45.1289 35.4589 44.435 33.4441 44.1146 31.92C43.9546 31.1582 43.8882 30.5209 43.8617 30.0767C43.8485 29.8546 43.8453 29.6811 43.8453 29.5647C43.8453 29.5065 43.8461 29.4627 43.8468 29.4342C43.8472 29.42 43.8476 29.4096 43.8479 29.4032L43.8481 29.3966L43.8482 29.3962V29.3959V29.3957V29.3957L43.8715 28.9443H43.4191H35.4121H34.9597L34.9831 29.3956C34.9831 29.3956 34.9831 29.3957 34.9831 29.3958C34.9831 29.3958 34.9831 29.3958 34.9831 29.396C34.9831 29.396 34.9831 29.396 34.9831 29.396L34.9832 29.3996L34.9839 29.4175C34.9844 29.4343 34.9851 29.4605 34.9855 29.4956C34.9864 29.5659 34.9862 29.672 34.9818 29.8096C34.973 30.0851 34.9474 30.4868 34.8795 30.9824C34.7436 31.9743 34.4393 33.3376 33.7661 34.817C33.0625 36.363 34.2004 38.1142 35.8945 38.1142H46.2802Z" fill="#B0EBCE" stroke="white" stroke-width="2"/>
<path d="M40.738 29.7314L41.9175 28.9443H40.4995H35.4121H34.9597L34.9831 29.3956V29.3957V29.3958V29.396V29.396L34.9832 29.3996L34.9839 29.4175C34.9844 29.4343 34.9851 29.4605 34.9855 29.4956C34.9864 29.5659 34.9862 29.672 34.9818 29.8096C34.973 30.0851 34.9474 30.4868 34.8795 30.9824C34.7436 31.9743 34.4393 33.3376 33.7661 34.817C33.0625 36.363 34.2004 38.1142 35.8945 38.1142H37.6633H38.2827L38.0657 37.5341C37.8028 36.8315 37.6596 36.0774 37.6596 35.2918C37.6596 33.0112 38.8651 30.9809 40.738 29.7314Z" fill="#2AB472" stroke="white" stroke-width="2"/>
<path d="M39.4149 13.7111C37.5504 12.7958 35.2865 13.5313 34.3159 15.3675C32.2669 15.7212 30.8654 17.6486 31.1604 19.7067C29.7112 21.1978 29.7112 23.5811 31.1604 25.0722C30.8655 27.1302 32.2669 29.0576 34.3158 29.4113C35.2864 31.2476 37.5504 31.983 39.4149 31.0677C41.2784 31.9825 43.5409 31.2484 44.5124 29.4142C45.1399 29.3209 45.7841 29.1298 46.3451 28.8262C46.9743 28.4858 47.5276 27.9871 47.8013 27.2992V27.2991C47.9651 26.8875 47.9339 26.4061 47.8712 25.9994C47.8292 25.7273 47.7619 25.4325 47.7036 25.1767C47.6947 25.138 47.6861 25.1002 47.6778 25.0635C49.1186 23.5719 49.1158 21.1949 47.6694 19.7067C47.9643 17.6486 46.5629 15.7212 44.5139 15.3675C43.5432 13.5313 41.2793 12.7958 39.4149 13.7111Z" fill="#2AB472" stroke="white" stroke-width="2"/>
<path d="M49.4003 21.5894C47.6099 21.5894 46.1584 23.0408 46.1584 24.8312C46.1584 25.705 46.5057 26.7664 47.0509 27.6101C47.5857 28.4377 48.4014 29.1874 49.4003 29.1874C50.3993 29.1874 51.2149 28.4377 51.7497 27.6101C52.2949 26.7664 52.6422 25.705 52.6422 24.8312C52.6422 23.0408 51.1907 21.5894 49.4003 21.5894Z" fill="#00CD8C" stroke="white" stroke-width="2"/>
<path d="M56.4756 28.665C55.6018 28.665 54.5404 29.0123 53.6967 29.5575C52.8691 30.0923 52.1194 30.9079 52.1194 31.9069C52.1194 32.9059 52.8691 33.7215 53.6967 34.2563C54.5404 34.8015 55.6018 35.1488 56.4756 35.1488C58.2661 35.1488 59.7175 33.6973 59.7175 31.9069C59.7175 30.1164 58.2661 28.665 56.4756 28.665Z" fill="#00CD8C" stroke="white" stroke-width="2"/>
<path d="M56.7253 24.5818C55.3878 23.2442 53.2191 23.2442 51.8816 24.5818C51.228 25.2354 50.6923 26.2911 50.4684 27.333C50.2486 28.356 50.3002 29.5226 51.0424 30.2647C51.7845 31.0068 52.9511 31.0584 53.9741 30.8386C55.0159 30.6147 56.0717 30.079 56.7253 29.4254C58.0628 28.0879 58.0628 25.9193 56.7253 24.5818Z" fill="#2AB472" stroke="white" stroke-width="2"/>
<path d="M51.3224 29.9842C51.6598 30.3214 52.2069 30.3216 52.5443 29.9842L55.0241 27.5043C55.3615 27.1668 55.3616 26.6198 55.0241 26.2824C54.6867 25.9449 54.1398 25.945 53.8023 26.2823L51.3224 28.7623C50.985 29.0997 50.985 29.6468 51.3224 29.9842Z" fill="#00CD8C" stroke="white" stroke-width="2"/>
<path d="M48.5361 27.9785C48.5361 28.4556 48.9229 28.8425 49.4002 28.8425C49.8774 28.8425 50.2641 28.4556 50.2641 27.9785V24.6858C50.2641 24.2087 49.8774 23.8218 49.4002 23.8218C48.9229 23.8218 48.5361 24.2087 48.5361 24.6858V27.9785Z" fill="#2AB472" stroke="white" stroke-width="2"/>
<path d="M53.3281 32.771H56.6208C57.0981 32.771 57.4848 32.3841 57.4848 31.9069C57.4848 31.4298 57.0981 31.043 56.6208 31.043H53.3281C52.8509 31.043 52.4641 31.4298 52.4641 31.9069C52.4641 32.3841 52.8509 32.771 53.3281 32.771Z" fill="#2AB472" stroke="white" stroke-width="2"/>
<path d="M52.9289 28.3784C50.3541 25.8036 46.1794 25.8036 43.6047 28.3784C42.345 29.638 40.7708 32.2188 39.8124 34.7782C39.3318 36.0617 38.9948 37.3687 38.9387 38.5257C38.883 39.6732 39.1012 40.7527 39.8279 41.4794C40.5546 42.2061 41.6341 42.4242 42.7815 42.3685C43.9385 42.3124 45.2456 41.9754 46.529 41.4948C49.0885 40.5364 51.6692 38.9622 52.9289 37.7026L52.6251 37.3988L52.9289 37.7026C55.5037 35.1278 55.5037 30.9532 52.9289 28.3784Z" fill="#FF7E40" stroke="white" stroke-width="2"/>
<path fill-rule="evenodd" clip-rule="evenodd" d="M50.1725 5.15549H53.4666C53.0455 4.52519 52.5625 3.93614 52.0239 3.39752C50.9468 2.32037 49.668 1.46593 48.2607 0.882985C46.8533 0.300039 45.3449 0 43.8216 0C42.2983 0 40.7898 0.300039 39.3825 0.882985C37.9752 1.46593 36.6964 2.32038 35.6192 3.39752C35.0806 3.93614 34.5977 4.52519 34.1765 5.15549H37.4706C38.3009 4.33723 39.2817 3.68697 40.3591 3.2407C41.4568 2.786 42.6334 2.55197 43.8216 2.55197C45.0097 2.55197 46.1863 2.786 47.284 3.2407C48.3615 3.68697 49.3423 4.33723 50.1725 5.15549Z" fill="#FF7E40"/>
<path d="M5.0266 48.4463C5.36687 48.4463 5.71744 48.4773 6.07833 48.5391C6.43921 48.601 6.76916 48.6938 7.06818 48.8175C7.3672 48.931 7.61466 49.0753 7.81057 49.2506C8.00648 49.4259 8.10443 49.6269 8.10443 49.8538C8.10443 50.0909 8.04257 50.2714 7.91884 50.3951C7.7951 50.5188 7.64044 50.5807 7.45484 50.5807C7.27955 50.5807 7.11458 50.5498 6.95991 50.4879C6.81556 50.426 6.65058 50.359 6.46499 50.2868C6.27939 50.2147 6.0577 50.1476 5.79993 50.0858C5.54215 50.0239 5.21736 49.993 4.82554 49.993C4.39248 49.993 3.98519 50.0961 3.60369 50.3023C3.23249 50.4982 2.90254 50.7766 2.61383 51.1375C2.32513 51.4881 2.09829 51.9057 1.93331 52.3903C1.76833 52.8749 1.68585 53.4008 1.68585 53.9679C1.68585 54.6587 1.77349 55.2567 1.94878 55.762C2.12406 56.2672 2.3509 56.6848 2.6293 57.0148C2.91801 57.3447 3.23765 57.5922 3.58822 57.7572C3.94911 57.9118 4.30999 57.9892 4.67088 57.9892C5.2586 57.9892 5.7226 57.9067 6.06286 57.7417C6.41343 57.5664 6.69183 57.3447 6.89805 57.0766C6.90836 56.8601 6.91352 56.6023 6.91352 56.3033C6.91352 56.0043 6.91352 55.6795 6.91352 55.3289C6.91352 55.1949 6.9032 55.0918 6.88258 55.0196C6.86196 54.9371 6.8104 54.8752 6.72792 54.834C6.64543 54.7927 6.5217 54.767 6.35672 54.7567C6.20206 54.7463 5.99068 54.7412 5.7226 54.7412C5.39264 54.7412 5.12456 54.6999 4.91834 54.6175C4.71212 54.5247 4.60901 54.3339 4.60901 54.0452C4.60901 53.839 4.66056 53.674 4.76367 53.5503C4.8771 53.4162 5.10394 53.3389 5.4442 53.3183C5.50607 53.3183 5.60402 53.3183 5.73806 53.3183C5.88242 53.308 6.03193 53.3028 6.18659 53.3028C6.35157 53.3028 6.51139 53.3028 6.66605 53.3028C6.82072 53.3028 6.94445 53.3028 7.03725 53.3028C7.34658 53.3028 7.59404 53.3337 7.77964 53.3956C7.96524 53.4472 8.13021 53.5709 8.27457 53.7668C8.34674 53.8699 8.38799 54.0504 8.3983 54.3081C8.41892 54.5659 8.42923 54.8649 8.42923 55.2052V59.1955C8.42923 59.4739 8.3519 59.6802 8.19723 59.8142C8.05288 59.9482 7.88275 60.0153 7.68684 60.0153C7.44969 60.0153 7.25378 59.9534 7.09911 59.8297C6.95476 59.7162 6.88258 59.5306 6.88258 59.2729V58.6697C6.6145 58.979 6.29486 59.2007 5.92366 59.3347C5.56278 59.4688 5.10394 59.5358 4.54714 59.5358C3.98004 59.5358 3.42325 59.4224 2.87676 59.1955C2.33028 58.9687 1.84567 58.6336 1.42292 58.1902C1.00017 57.7365 0.654747 57.1746 0.386662 56.5044C0.128887 55.8238 0 55.0351 0 54.138C0 53.2409 0.128887 52.4418 0.386662 51.7407C0.654747 51.0395 1.01563 50.4467 1.46932 49.962C1.923 49.4671 2.45401 49.0908 3.06236 48.833C3.67071 48.5752 4.32546 48.4463 5.0266 48.4463Z" fill="#2AB472"/>
<path d="M13.7151 51.5551C14.3029 51.5551 14.8287 51.6479 15.2927 51.8335C15.7567 52.0088 16.1485 52.2614 16.4682 52.5913C16.7981 52.9213 17.0507 53.3234 17.226 53.7977C17.4013 54.272 17.489 54.8031 17.489 55.3908C17.489 56.0404 17.3858 56.6229 17.1796 57.1385C16.9837 57.654 16.7053 58.0923 16.3444 58.4531C15.9939 58.814 15.5711 59.0924 15.0762 59.2883C14.5916 59.4842 14.0606 59.5822 13.4831 59.5822C12.8542 59.5822 12.2974 59.4739 11.8128 59.2574C11.3385 59.0409 10.9363 58.747 10.6064 58.3758C10.2867 58.0046 10.0444 57.5767 9.87945 57.0921C9.71448 56.6075 9.63199 56.0971 9.63199 55.5609C9.63199 54.9732 9.72479 54.437 9.91039 53.9524C10.1063 53.4575 10.3795 53.0347 10.7301 52.6841C11.091 52.3233 11.5241 52.0449 12.0293 51.849C12.5345 51.653 13.0965 51.5551 13.7151 51.5551ZM13.545 58.1593C13.9678 58.1593 14.3286 58.0871 14.6277 57.9427C14.9267 57.7881 15.169 57.587 15.3546 57.3396C15.5505 57.0921 15.6897 56.8137 15.7722 56.5044C15.865 56.1847 15.9114 55.8548 15.9114 55.5145C15.9114 55.1639 15.865 54.8391 15.7722 54.5401C15.6897 54.2308 15.5556 53.9627 15.3701 53.7359C15.1948 53.509 14.9628 53.3337 14.6741 53.21C14.3957 53.076 14.0606 53.0089 13.6687 53.0089C13.2666 53.0089 12.916 53.076 12.617 53.21C12.318 53.3441 12.0654 53.5296 11.8592 53.7668C11.6633 53.9936 11.5137 54.2669 11.4106 54.5865C11.3075 54.9062 11.256 55.2516 11.256 55.6228C11.256 56.3755 11.4467 56.989 11.8282 57.4633C12.22 57.9273 12.7923 58.1593 13.545 58.1593Z" fill="#2AB472"/>
<path d="M22.5963 51.5551C23.184 51.5551 23.7099 51.6479 24.1739 51.8335C24.6379 52.0088 25.0297 52.2614 25.3493 52.5913C25.6793 52.9213 25.9319 53.3234 26.1072 53.7977C26.2825 54.272 26.3701 54.8031 26.3701 55.3908C26.3701 56.0404 26.267 56.6229 26.0608 57.1385C25.8649 57.654 25.5865 58.0923 25.2256 58.4531C24.875 58.814 24.4523 59.0924 23.9573 59.2883C23.4727 59.4842 22.9417 59.5822 22.3643 59.5822C21.7353 59.5822 21.1785 59.4739 20.6939 59.2574C20.2196 59.0409 19.8175 58.747 19.4875 58.3758C19.1679 58.0046 18.9256 57.5767 18.7606 57.0921C18.5956 56.6075 18.5131 56.0971 18.5131 55.5609C18.5131 54.9732 18.6059 54.437 18.7915 53.9524C18.9874 53.4575 19.2607 53.0347 19.6112 52.6841C19.9721 52.3233 20.4052 52.0449 20.9104 51.849C21.4157 51.653 21.9776 51.5551 22.5963 51.5551ZM22.4261 58.1593C22.8489 58.1593 23.2098 58.0871 23.5088 57.9427C23.8078 57.7881 24.0501 57.587 24.2357 57.3396C24.4316 57.0921 24.5708 56.8137 24.6533 56.5044C24.7461 56.1847 24.7925 55.8548 24.7925 55.5145C24.7925 55.1639 24.7461 54.8391 24.6533 54.5401C24.5708 54.2308 24.4368 53.9627 24.2512 53.7359C24.0759 53.509 23.8439 53.3337 23.5552 53.21C23.2768 53.076 22.9417 53.0089 22.5499 53.0089C22.1478 53.0089 21.7972 53.076 21.4982 53.21C21.1991 53.3441 20.9465 53.5296 20.7403 53.7668C20.5444 53.9936 20.3949 54.2669 20.2918 54.5865C20.1887 54.9062 20.1371 55.2516 20.1371 55.6228C20.1371 56.3755 20.3279 56.989 20.7094 57.4633C21.1012 57.9273 21.6734 58.1593 22.4261 58.1593Z" fill="#2AB472"/>
<path d="M34.3542 59.3657C34.148 59.3657 33.9727 59.2832 33.8283 59.1182C33.6943 58.9532 33.6015 58.7625 33.5499 58.5459C33.4262 58.6594 33.2818 58.7728 33.1169 58.8862C32.9622 58.9996 32.7818 59.1079 32.5755 59.211C32.3693 59.3038 32.1425 59.3811 31.895 59.443C31.6476 59.5049 31.3795 59.5358 31.0908 59.5358C30.7402 59.5358 30.3484 59.4791 29.9153 59.3657C29.4926 59.2419 29.0904 59.0357 28.7089 58.747C28.3377 58.448 28.0232 58.0459 27.7655 57.5406C27.518 57.0354 27.3943 56.4013 27.3943 55.6382C27.3943 54.9887 27.4922 54.4112 27.6881 53.906C27.884 53.4008 28.1573 52.978 28.5079 52.6377C28.8687 52.2872 29.2915 52.0242 29.7761 51.849C30.271 51.6634 30.8072 51.5706 31.3846 51.5706C31.8795 51.5706 32.2714 51.6273 32.5601 51.7407C32.8488 51.8541 33.0756 51.9882 33.2406 52.1428C33.2406 51.8644 33.2406 51.5499 33.2406 51.1994C33.2406 50.8385 33.2406 50.4931 33.2406 50.1631C33.2509 49.8229 33.2561 49.5135 33.2561 49.2351C33.2664 48.9567 33.2767 48.7454 33.287 48.601C33.3076 48.2504 33.3695 48.0133 33.4726 47.8895C33.5757 47.7555 33.7561 47.6885 34.0139 47.6885C34.282 47.6885 34.4624 47.7555 34.5552 47.8895C34.6584 48.0133 34.7202 48.235 34.7408 48.5546C34.7512 48.6886 34.7563 48.8691 34.7563 49.0959C34.7666 49.3228 34.7718 49.5702 34.7718 49.8383C34.7718 50.1064 34.7718 50.3796 34.7718 50.658C34.7821 50.9261 34.7872 51.1736 34.7872 51.4004C34.7872 51.617 34.7872 51.7974 34.7872 51.9418C34.7872 52.0861 34.7872 52.1583 34.7872 52.1583C34.7872 53.21 34.7769 54.1792 34.7563 55.066C34.746 55.9527 34.7408 56.659 34.7408 57.1849C34.7615 57.2983 34.8027 57.4066 34.8646 57.5097C34.9368 57.6128 35.0089 57.7159 35.0811 57.819C35.1636 57.9221 35.2358 58.0304 35.2976 58.1438C35.3595 58.2572 35.3904 58.3758 35.3904 58.4995C35.3904 58.6439 35.3544 58.7728 35.2822 58.8862C35.21 58.9893 35.1172 59.077 35.0038 59.1491C34.9007 59.2213 34.7872 59.278 34.6635 59.3193C34.5501 59.3502 34.447 59.3657 34.3542 59.3657ZM31.3692 58.0046C32.0084 58.0046 32.4982 57.8139 32.8385 57.4324C33.1787 57.0508 33.3489 56.4219 33.3489 55.5454C33.3489 53.8648 32.6838 53.0244 31.3537 53.0244C31.0444 53.0244 30.7453 53.0708 30.4566 53.1636C30.1679 53.2564 29.9102 53.4008 29.6833 53.5967C29.4668 53.7926 29.2863 54.04 29.142 54.3391C29.0079 54.6381 28.9409 54.9938 28.9409 55.4062C28.9409 55.7465 28.9873 56.0713 29.0801 56.3806C29.1832 56.69 29.3327 56.9684 29.5286 57.2158C29.7349 57.453 29.9875 57.6437 30.2865 57.7881C30.5958 57.9324 30.9567 58.0046 31.3692 58.0046Z" fill="#2AB472"/>
<path d="M38.2945 58.422C38.2945 58.6695 38.2687 58.8602 38.2171 58.9943C38.1759 59.1283 38.1192 59.2314 38.047 59.3036C37.9851 59.3758 37.9078 59.417 37.815 59.4274C37.7325 59.448 37.65 59.4583 37.5675 59.4583C37.2891 59.4583 37.1035 59.3964 37.0107 59.2727C36.9282 59.149 36.8715 58.8706 36.8406 58.4375C36.82 58.2107 36.8045 57.8807 36.7942 57.4476C36.7839 57.0146 36.7736 56.499 36.7633 55.901C36.7633 55.303 36.7581 54.6431 36.7478 53.9213C36.7478 53.1995 36.7478 52.4365 36.7478 51.6322C36.7478 51.2507 36.7942 50.8641 36.887 50.4723C36.9798 50.0804 37.1551 49.7247 37.4129 49.4051C37.6809 49.0854 38.047 48.8277 38.511 48.6318C38.9853 48.4358 39.5988 48.3379 40.3515 48.3379C40.8774 48.3379 41.3774 48.3946 41.8517 48.508C42.326 48.6214 42.7436 48.8174 43.1045 49.0957C43.4654 49.3741 43.7541 49.7453 43.9706 50.2093C44.1872 50.6733 44.2954 51.2507 44.2954 51.9416C44.2954 52.6633 44.1769 53.2614 43.9397 53.7357C43.7026 54.21 43.3675 54.5863 42.9344 54.8647C42.5013 55.1431 41.9858 55.339 41.3877 55.4525C40.7897 55.5659 40.135 55.6226 39.4235 55.6226C39.2482 55.6226 39.0729 55.6226 38.8976 55.6226C38.7224 55.6226 38.5264 55.6123 38.3099 55.5917L38.2945 58.422ZM42.7488 51.9106C42.7488 51.2198 42.5529 50.6991 42.1611 50.3485C41.7796 49.998 41.1403 49.8227 40.2432 49.8227C39.903 49.8227 39.6091 49.8536 39.3616 49.9155C39.1245 49.967 38.9286 50.065 38.7739 50.2093C38.6192 50.3434 38.5007 50.529 38.4182 50.7661C38.346 51.0033 38.3099 51.3023 38.3099 51.6632C38.3099 52.0138 38.3099 52.4159 38.3099 52.8696C38.3099 53.3129 38.3151 53.7305 38.3254 54.1224C38.5625 54.1327 38.8255 54.1378 39.1142 54.1378C39.4132 54.1378 39.6916 54.1378 39.9494 54.1378C40.2587 54.1378 40.5783 54.1172 40.9083 54.076C41.2485 54.0347 41.5527 53.9419 41.8208 53.7976C42.0889 53.6429 42.3106 53.4212 42.4859 53.1325C42.6612 52.8335 42.7488 52.4262 42.7488 51.9106Z" fill="#FF7E40"/>
<path d="M51.895 59.4583C51.7301 59.4583 51.596 59.4325 51.4929 59.381C51.4001 59.3191 51.3279 59.2418 51.2764 59.149C51.2248 59.0562 51.1887 58.9479 51.1681 58.8242C51.1475 58.6901 51.132 58.5509 51.1217 58.4066C50.8639 58.7262 50.5288 58.9943 50.1164 59.2108C49.7143 59.4274 49.1987 59.5356 48.5697 59.5356C48.1676 59.5356 47.7552 59.4789 47.3324 59.3655C46.92 59.2418 46.5436 59.0355 46.2034 58.7468C45.8631 58.4478 45.5847 58.0508 45.3682 57.5559C45.1517 57.061 45.0434 56.4372 45.0434 55.6845C45.0434 55.0967 45.1156 54.5451 45.2599 54.0296C45.4043 53.514 45.6208 53.0655 45.9095 52.684C46.2085 52.2922 46.5797 51.9828 47.0231 51.756C47.4665 51.5291 47.9872 51.4157 48.5852 51.4157C49.1111 51.4157 49.5802 51.5137 49.9927 51.7096C50.4051 51.8952 50.7763 52.2045 51.1062 52.6376C51.1062 52.5138 51.1114 52.3901 51.1217 52.2664C51.132 52.1323 51.1578 52.0138 51.199 51.9106C51.2506 51.7972 51.3279 51.7096 51.431 51.6477C51.5342 51.5755 51.6734 51.5395 51.8486 51.5395C52.0033 51.5395 52.1477 51.6013 52.2817 51.725C52.4157 51.8488 52.4931 52.1169 52.5137 52.5293C52.5446 53.0758 52.5653 53.5656 52.5756 53.9986C52.5962 54.4317 52.6065 54.8802 52.6065 55.3442C52.6065 55.9113 52.6013 56.432 52.591 56.9063C52.5807 57.3806 52.5549 57.8859 52.5137 58.422C52.4931 58.6592 52.4621 58.8499 52.4209 58.9943C52.39 59.1283 52.3487 59.2314 52.2972 59.3036C52.2456 59.3655 52.1837 59.4067 52.1116 59.4274C52.0394 59.448 51.9672 59.4583 51.895 59.4583ZM51.0599 55.5298C51.0599 54.9936 50.9774 54.5554 50.8124 54.2152C50.6577 53.8749 50.4567 53.612 50.2092 53.4264C49.972 53.2305 49.7143 53.0964 49.4359 53.0242C49.1575 52.9521 48.8997 52.916 48.6625 52.916C48.2914 52.916 47.9717 52.983 47.7036 53.117C47.4459 53.2511 47.2345 53.4367 47.0695 53.6738C46.9045 53.9007 46.7808 54.1739 46.6983 54.4935C46.6261 54.8029 46.59 55.1431 46.59 55.5143C46.59 56.4217 46.7859 57.0919 47.1778 57.525C47.5799 57.958 48.1212 58.1746 48.8017 58.1746C49.2039 58.1746 49.5441 58.1075 49.8225 57.9735C50.1112 57.8292 50.3432 57.6384 50.5185 57.4012C50.7041 57.1641 50.8382 56.8857 50.9207 56.5661C51.0135 56.2361 51.0599 55.8907 51.0599 55.5298Z" fill="#FF7E40"/>
<path d="M58.0544 52.8077C57.6729 52.8077 57.3275 52.8696 57.0182 52.9933C56.7192 53.117 56.3789 53.3026 55.9974 53.5501C55.9974 53.7666 55.9974 54.0863 55.9974 54.509C55.9974 54.9215 55.9922 55.3751 55.9819 55.8701C55.9716 56.3547 55.9613 56.8341 55.951 57.3084C55.9407 57.7828 55.9201 58.1797 55.8891 58.4994C55.8685 58.7056 55.8427 58.8706 55.8118 58.9943C55.7912 59.1077 55.7551 59.1954 55.7035 59.2572C55.6623 59.3191 55.6004 59.3603 55.5179 59.381C55.4458 59.3913 55.3478 59.3964 55.2241 59.3964C55.1003 59.3964 54.9972 59.3913 54.9147 59.381C54.8426 59.3603 54.7807 59.3242 54.7292 59.2727C54.6776 59.2108 54.6364 59.1232 54.6054 59.0098C54.5745 58.8963 54.5487 58.7417 54.5281 58.5458C54.5075 58.3602 54.4868 58.1127 54.4662 57.8034C54.4559 57.494 54.4456 57.1589 54.4353 56.7981C54.425 56.4269 54.4147 56.0557 54.4044 55.6845C54.4044 55.303 54.4044 54.9524 54.4044 54.6327C54.4044 54.1069 54.4095 53.679 54.4198 53.349C54.4404 53.0191 54.4714 52.7252 54.5126 52.4674C54.5745 52.0344 54.657 51.7611 54.7601 51.6477C54.8632 51.5343 55.0024 51.4776 55.1777 51.4776C55.4355 51.4776 55.6262 51.5498 55.7499 51.6941C55.884 51.8385 55.9665 52.0756 55.9974 52.4056C56.3789 52.0756 56.7862 51.8127 57.2193 51.6168C57.6626 51.4209 58.1163 51.3229 58.5803 51.3229C59.0237 51.3229 59.4258 51.426 59.7867 51.6322C60.1579 51.8385 60.4621 52.1736 60.6992 52.6376C60.8436 52.916 60.9518 53.2253 61.024 53.5656C61.0962 53.8955 61.1477 54.2461 61.1787 54.6173C61.189 54.7823 61.1993 54.9472 61.2096 55.1122C61.2199 55.2669 61.2251 55.437 61.2251 55.6226C61.2354 55.7979 61.2405 55.999 61.2405 56.2258C61.2405 56.4526 61.2405 56.7207 61.2405 57.03C61.2405 57.36 61.2354 57.6693 61.2251 57.958C61.2148 58.2467 61.1838 58.4994 61.1323 58.7159C61.091 58.9221 61.0137 59.0871 60.9003 59.2108C60.7869 59.3242 60.6322 59.381 60.4363 59.381C59.962 59.381 59.7145 59.1541 59.6939 58.7004C59.6939 58.6695 59.6939 58.5406 59.6939 58.3138C59.6939 58.0766 59.6887 57.8034 59.6784 57.494C59.6784 57.1847 59.6733 56.8702 59.663 56.5506C59.663 56.2309 59.6578 55.968 59.6475 55.7618C59.6372 55.5968 59.6217 55.4215 59.6011 55.2359C59.5908 55.04 59.5702 54.8441 59.5392 54.6482C59.5186 54.4523 59.4877 54.2667 59.4464 54.0914C59.4052 53.9058 59.3536 53.7408 59.2918 53.5965C59.1474 53.2562 58.967 53.0397 58.7504 52.9469C58.5339 52.8541 58.3019 52.8077 58.0544 52.8077Z" fill="#FF7E40"/>
<path d="M66.076 61.5153C66.5606 61.5153 66.9679 61.4174 67.2978 61.2215C67.6381 61.0359 67.9113 60.7626 68.1176 60.4017C68.3238 60.0512 68.4681 59.6284 68.5506 59.1335C68.6434 58.6283 68.6898 58.0611 68.6898 57.4322C68.597 57.7621 68.463 58.0405 68.2877 58.2674C68.1124 58.4942 67.9062 58.6798 67.669 58.8242C67.4422 58.9582 67.1844 59.0562 66.8957 59.118C66.607 59.1799 66.308 59.2108 65.9987 59.2108C65.5243 59.2108 65.0758 59.1438 64.6531 59.0098C64.2303 58.8757 63.8591 58.6643 63.5395 58.3756C63.2302 58.0869 62.9827 57.7209 62.7971 57.2775C62.6115 56.8238 62.5187 56.2825 62.5187 55.6535C62.5187 55.0452 62.6063 54.4884 62.7816 53.9832C62.9672 53.4676 63.2302 53.0242 63.5704 52.653C63.921 52.2818 64.3437 51.9931 64.8387 51.7869C65.3336 51.5807 65.9007 51.4776 66.54 51.4776C66.8802 51.4776 67.1793 51.5085 67.437 51.5704C67.7051 51.6323 67.9423 51.7147 68.1485 51.8178C68.3547 51.921 68.5352 52.0447 68.6898 52.189C68.8548 52.3334 69.0043 52.4881 69.1383 52.653C69.5302 53.148 69.8137 53.7357 69.989 54.4162C70.1643 55.0864 70.2519 55.8958 70.2519 56.8445C70.2519 57.5456 70.1901 58.2622 70.0663 58.9943C69.9529 59.7264 69.7415 60.3863 69.4322 60.974C69.1229 61.572 68.695 62.0567 68.1485 62.4278C67.602 62.8094 66.9009 63.0001 66.0451 63.0001C65.8904 63.0001 65.7151 62.9898 65.5192 62.9692C65.3336 62.9589 65.1377 62.9382 64.9315 62.9073C64.7356 62.8764 64.5396 62.83 64.3437 62.7681C64.1478 62.7166 63.9674 62.6444 63.8024 62.5516C63.5962 62.4382 63.4312 62.3299 63.3075 62.2268C63.1838 62.1237 63.1219 61.9535 63.1219 61.7164C63.1219 61.5205 63.1631 61.34 63.2456 61.1751C63.3384 61.0204 63.4931 60.9431 63.7096 60.9431C63.8127 60.9431 63.9261 60.974 64.0499 61.0359C64.1736 61.0977 64.3231 61.1596 64.4984 61.2215C64.684 61.2936 64.9005 61.3607 65.148 61.4225C65.4058 61.4844 65.7151 61.5153 66.076 61.5153ZM66.1533 57.8034C66.5554 57.8034 66.8957 57.7312 67.1741 57.5868C67.4628 57.4322 67.6948 57.2311 67.8701 56.9837C68.0557 56.7362 68.1897 56.4578 68.2722 56.1485C68.365 55.8391 68.4114 55.5298 68.4114 55.2205C68.4114 54.9627 68.3753 54.7049 68.3032 54.4471C68.2413 54.1791 68.133 53.9368 67.9784 53.7202C67.8237 53.5037 67.6123 53.3284 67.3442 53.1944C67.0762 53.0603 66.741 52.9933 66.3389 52.9933C65.6584 52.9933 65.1068 53.1995 64.684 53.612C64.2716 54.0244 64.0653 54.6327 64.0653 55.437C64.0653 56.1897 64.2509 56.7723 64.6221 57.1847C64.9933 57.5972 65.5037 57.8034 66.1533 57.8034Z" fill="#FF7E40"/>
<path d="M77.9947 59.4583C77.8297 59.4583 77.6957 59.4325 77.5926 59.381C77.4998 59.3191 77.4276 59.2418 77.3761 59.149C77.3245 59.0562 77.2884 58.9479 77.2678 58.8242C77.2472 58.6901 77.2317 58.5509 77.2214 58.4066C76.9636 58.7262 76.6285 58.9943 76.2161 59.2108C75.8139 59.4274 75.2984 59.5356 74.6694 59.5356C74.2673 59.5356 73.8549 59.4789 73.4321 59.3655C73.0197 59.2418 72.6433 59.0355 72.3031 58.7468C71.9628 58.4478 71.6844 58.0508 71.4679 57.5559C71.2513 57.061 71.1431 56.4372 71.1431 55.6845C71.1431 55.0967 71.2152 54.5451 71.3596 54.0296C71.5039 53.514 71.7205 53.0655 72.0092 52.684C72.3082 52.2922 72.6794 51.9828 73.1228 51.756C73.5661 51.5291 74.0869 51.4157 74.6849 51.4157C75.2108 51.4157 75.6799 51.5137 76.0923 51.7096C76.5048 51.8952 76.876 52.2045 77.2059 52.6376C77.2059 52.5138 77.2111 52.3901 77.2214 52.2664C77.2317 52.1323 77.2575 52.0138 77.2987 51.9106C77.3503 51.7972 77.4276 51.7096 77.5307 51.6477C77.6338 51.5755 77.773 51.5395 77.9483 51.5395C78.103 51.5395 78.2473 51.6013 78.3814 51.725C78.5154 51.8488 78.5928 52.1169 78.6134 52.5293C78.6443 53.0758 78.6649 53.5656 78.6752 53.9986C78.6959 54.4317 78.7062 54.8802 78.7062 55.3442C78.7062 55.9113 78.701 56.432 78.6907 56.9063C78.6804 57.3806 78.6546 57.8859 78.6134 58.422C78.5928 58.6592 78.5618 58.8499 78.5206 58.9943C78.4896 59.1283 78.4484 59.2314 78.3968 59.3036C78.3453 59.3655 78.2834 59.4067 78.2112 59.4274C78.1391 59.448 78.0669 59.4583 77.9947 59.4583ZM77.1595 55.5298C77.1595 54.9936 77.077 54.5554 76.9121 54.2152C76.7574 53.8749 76.5563 53.612 76.3089 53.4264C76.0717 53.2305 75.8139 53.0964 75.5355 53.0242C75.2571 52.9521 74.9994 52.916 74.7622 52.916C74.391 52.916 74.0714 52.983 73.8033 53.117C73.5455 53.2511 73.3342 53.4367 73.1692 53.6738C73.0042 53.9007 72.8805 54.1739 72.798 54.4935C72.7258 54.8029 72.6897 55.1431 72.6897 55.5143C72.6897 56.4217 72.8856 57.0919 73.2774 57.525C73.6796 57.958 74.2209 58.1746 74.9014 58.1746C75.3035 58.1746 75.6438 58.1075 75.9222 57.9735C76.2109 57.8292 76.4429 57.6384 76.6182 57.4012C76.8038 57.1641 76.9378 56.8857 77.0203 56.5661C77.1131 56.2361 77.1595 55.8907 77.1595 55.5298Z" fill="#FF7E40"/>
<path d="M84.1541 52.8077C83.7726 52.8077 83.4272 52.8696 83.1179 52.9933C82.8188 53.117 82.4786 53.3026 82.0971 53.5501C82.0971 53.7666 82.0971 54.0863 82.0971 54.509C82.0971 54.9215 82.0919 55.3751 82.0816 55.8701C82.0713 56.3547 82.061 56.8341 82.0507 57.3084C82.0404 57.7828 82.0197 58.1797 81.9888 58.4994C81.9682 58.7056 81.9424 58.8706 81.9115 58.9943C81.8909 59.1077 81.8548 59.1954 81.8032 59.2572C81.762 59.3191 81.7001 59.3603 81.6176 59.381C81.5454 59.3913 81.4475 59.3964 81.3238 59.3964C81.2 59.3964 81.0969 59.3913 81.0144 59.381C80.9422 59.3603 80.8804 59.3242 80.8288 59.2727C80.7773 59.2108 80.736 59.1232 80.7051 59.0098C80.6742 58.8963 80.6484 58.7417 80.6278 58.5458C80.6071 58.3602 80.5865 58.1127 80.5659 57.8034C80.5556 57.494 80.5453 57.1589 80.535 56.7981C80.5247 56.4269 80.5143 56.0557 80.504 55.6845C80.504 55.303 80.504 54.9524 80.504 54.6327C80.504 54.1069 80.5092 53.679 80.5195 53.349C80.5401 53.0191 80.571 52.7252 80.6123 52.4674C80.6742 52.0344 80.7566 51.7611 80.8598 51.6477C80.9629 51.5343 81.1021 51.4776 81.2774 51.4776C81.5351 51.4776 81.7259 51.5498 81.8496 51.6941C81.9837 51.8385 82.0661 52.0756 82.0971 52.4056C82.4786 52.0756 82.8859 51.8127 83.3189 51.6168C83.7623 51.4209 84.216 51.3229 84.68 51.3229C85.1234 51.3229 85.5255 51.426 85.8864 51.6322C86.2576 51.8385 86.5617 52.1736 86.7989 52.6376C86.9432 52.916 87.0515 53.2253 87.1237 53.5656C87.1959 53.8955 87.2474 54.2461 87.2783 54.6173C87.2887 54.7823 87.299 54.9472 87.3093 55.1122C87.3196 55.2669 87.3247 55.437 87.3247 55.6226C87.3351 55.7979 87.3402 55.999 87.3402 56.2258C87.3402 56.4526 87.3402 56.7207 87.3402 57.03C87.3402 57.36 87.3351 57.6693 87.3247 57.958C87.3144 58.2467 87.2835 58.4994 87.2319 58.7159C87.1907 58.9221 87.1134 59.0871 87 59.2108C86.8865 59.3242 86.7319 59.381 86.536 59.381C86.0616 59.381 85.8142 59.1541 85.7936 58.7004C85.7936 58.6695 85.7936 58.5406 85.7936 58.3138C85.7936 58.0766 85.7884 57.8034 85.7781 57.494C85.7781 57.1847 85.7729 56.8702 85.7626 56.5506C85.7626 56.2309 85.7575 55.968 85.7472 55.7618C85.7369 55.5968 85.7214 55.4215 85.7008 55.2359C85.6905 55.04 85.6698 54.8441 85.6389 54.6482C85.6183 54.4523 85.5873 54.2667 85.5461 54.0914C85.5049 53.9058 85.4533 53.7408 85.3914 53.5965C85.2471 53.2562 85.0666 53.0397 84.8501 52.9469C84.6336 52.8541 84.4016 52.8077 84.1541 52.8077Z" fill="#FF7E40"/>
</svg>
